…
  - Weight-age relationship at readmission positive;

<!-- end list -->

    ## # A tibble: 449 x 7
    ## # Groups:   race, gender, age, weight, medical_specialty, readmitted [449]
    ##    race      gender age     weight    medical_specialty readmitted     n
    ##    <fct>     <fct>  <fct>   <chr>     <fct>             <chr>      <int>
    ##  1 Caucasian Male   [70-80) [75-100)  Cardiology        YES           35
    ##  2 Caucasian Male   [70-80) [75-100)  Surgery-General   YES           31
    ##  3 Caucasian Male   [70-80) [75-100)  InternalMedicine  YES           26
    ##  4 Caucasian Male   [60-70) [75-100)  Cardiology        YES           23
    ##  5 Caucasian Male   [70-80) [75-100)  Cardiology        NO            22
    ##  6 Caucasian Female [70-80) [75-100)  Cardiology        YES           21
    ##  7 Caucasian Female [70-80) [75-100)  Surgery-General   YES           19
    ##  8 Caucasian Male   [60-70) [100-125) Cardiology        YES           19
    ##  9 Caucasian Male   [70-80) [100-125) Cardiology        YES           18
    ## 10 Caucasian Male   [80-90) [75-100)  Cardiology        NO            16
    ## # … with 439 more rows
…
